lav/lav/counter.vcd
$date
     Mar 12, 2020       11:26:49
$end

$version
                SystemC (TM) Version 1.0  --- Mar 10 2020 22:15:57
                                  ALL RIGHTS RESERVED
$end

$timescale
     1 s
$end

$scope module SystemC $end
$var real    1  aaa  in1       $end
$var real    1  aab  in2       $end
$var real    1  aac  diff       $end
$var real    1  aad  prod       $end
$var real    1  aae  quot       $end
$var real    1  aaf  powr       $end
$var real    1  aag  lab2_out1       $end
$var real    1  aah  lab2_out2       $end
$var wire    1  aai  clk       $end
$upscope $end
$enddefinitions  $end

$comment
All initial values are dumped below at time 0 sec = 0 timescale units.
$end

$dumpvars
r0 aaa
r0 aab
r0 aac
r0 aad
r0 aae
r1 aaf
r0 aag
r-1 aah
1aai
$end

#0
0aai

#1
r1 aac
r204 aag
r-205 aah
1aai

#2
0aai

#3
r409 aac
r-1 aad
r-1 aae
1aai

#4
0aai

#5
r-409 aad
r-0.002444987775061125 aae
r-1 aaf
1aai

#6
0aai

#7
r-nan(ind) aaf
1aai

#8
r-nan(ind) aaf
0aai

#9
r-nan(ind) aaf
1aai

#10
r-nan(ind) aaf
0aai

#11
r-nan(ind) aaf
1aai

#12
r-nan(ind) aaf
0aai

#13
r-nan(ind) aaf
1aai

#14
r-nan(ind) aaf
0aai

#15
r-nan(ind) aaf
1aai

#16
r-nan(ind) aaf
0aai

#17
r-nan(ind) aaf
1aai

#18
r-nan(ind) aaf
0aai

#19
r-nan(ind) aaf
1aai

